Query Type,Query ID,Execution Time (ms),Monetary Cost ($)
14,1,144.61183547973633,0.01735342025756836
12,2,376.2860298156738,0.04515432357788086
1,3,2044.064998626709,0.24528779983520507
15,4,386.3973617553711,0.04636768341064453
19,5,44.77953910827637,0.005373544692993164
16,6,411.3597869873047,0.04936317443847656
17,7,779.0579795837402,0.09348695755004884
21,8,558.058500289917,0.06696702003479003
2,9,177.47902870178223,0.021297483444213866
8,10,146.33798599243164,0.0175605583190918
7,11,664.9429798126221,0.07979315757751465
10,12,364.4692897796631,0.04373631477355957
4,13,132.34305381774902,0.015881166458129883
13,14,947.495698928833,0.11369948387145996
5,15,247.07698822021484,0.02964923858642578
20,16,136.31391525268555,0.016357669830322268
9,17,525.8090496063232,0.06309708595275879
3,18,333.646297454834,0.040037555694580076
18,19,2836.7061614990234,0.3404047393798828
22,20,79.61511611938477,0.009553813934326172
11,21,80.95002174377441,0.00971400260925293
6,22,270.36547660827637,0.03244385719299316
