Query,Average execution time,Average monetary cost
Q1,2028.7586053212483,0.2434510326385498
Q2,819.2853927612305,0.09831424713134766
Q3,350.082794825236,0.04200993537902833
Q4,1721.3199138641357,0.2065583896636963
Q5,348.0693499247233,0.0417683219909668
Q6,282.6845645904541,0.033922147750854496
Q7,651.628335316976,0.07819540023803712
Q8,244.3227767944336,0.02931873321533203
Q9,540.0657653808594,0.06480789184570312
Q10,437.9588762919108,0.0525550651550293
Q11,83.30607414245605,0.009996728897094728
Q12,429.58799997965497,0.051550559997558594
Q13,936.4798069000244,0.11237757682800292
Q14,144.65904235839844,0.017359085083007816
Q15,400.27634302775067,0.04803316116333008
Q16,421.3240146636963,0.05055888175964356
Q17,818.5231685638428,0.09822278022766114
Q18,3022.118171056112,0.3626541805267334
Q19,45.52157719930013,0.005462589263916015
Q20,3936.835686365763,0.4724202823638916
Q21,630.3747495015463,0.07564496994018555
Q22,87.26159731547038,0.010471391677856446
