Query Type,Query ID,Execution Time (ms),Monetary Cost ($)
17,1,84.7935676574707,0.010175228118896484
15,2,37.3845100402832,0.004486141204833985
13,3,75.51002502441406,0.009061203002929688
19,4,6.438016891479492,0.0007725620269775391
12,5,39.16525840759277,0.004699831008911133
7,6,82.31973648071289,0.009878368377685548
14,7,12.433528900146484,0.0014920234680175781
22,8,15.27857780456543,0.0018334293365478516
1,9,582.1104049682617,0.06985324859619141
5,10,55.24158477783203,0.006628990173339844
6,11,33.16473960876465,0.003979768753051758
10,12,63.08722496032715,0.007570466995239258
21,13,62.68596649169922,0.0075223159790039065
9,14,134.94443893432617,0.01619333267211914
8,15,42.88220405578613,0.005145864486694336
20,16,41.361093521118164,0.00496333122253418
18,17,208.298921585083,0.02499587059020996
4,18,358.6082458496094,0.043032989501953126
2,19,35.53628921508789,0.004264354705810547
3,20,46.16808891296387,0.005540170669555664
16,21,47.660112380981445,0.005719213485717773
11,22,8.17108154296875,0.00098052978515625
